{"url":"\/","ip":"203.113.192.20","pid":15512,"date":"2015-11-24T05:58:11+00:00","theme_name":"\/websites\/la\/launchhousing.org.au\/wp-content\/themes\/elise\/functions.php","runtime":{"total":5.754683971405,"wordpress":0.14881777763367,"theme":0.50131726264954,"plugins":0.87548589706421,"profile":4.139331817627,"breakdown":{"p3-profiler":0.002647876739502,"contact-form-7-to-database-extension":0.032042503356934,"contact-form-7":0.049007654190063,"donors":0.00041556358337402,"duplicate-post":0.0031790733337402,"duplicator":0.00083112716674805,"google-analytics-for-wordpress":0.067636251449585,"insert-headers-and-footers":0.004162073135376,"js_composer":0.41366696357727,"portfolio-post-type":0.0099148750305176,"revslider":0.10105085372925,"stag-custom-sidebars":0.0074410438537598,"use-any-font":0.0047910213470459,"white-label-cms":0.0035622119903564,"wordpress-seo":0.16135859489441,"wp-fastest-cache":0.013778209686279}},"memory":89391104,"stacksize":36461,"queries":80}
{"url":"\/?s=site","ip":"203.113.192.20","pid":10525,"date":"2015-11-24T05:58:23+00:00","theme_name":"\/websites\/la\/launchhousing.org.au\/wp-content\/themes\/elise\/functions.php","runtime":{"total":6.4950280189514,"wordpress":0.22121500968933,"theme":0.65920853614807,"plugins":1.5334136486053,"profile":3.9947049617767,"breakdown":{"p3-profiler":0.015484809875488,"contact-form-7-to-database-extension":0.14296722412109,"contact-form-7":0.17782711982727,"donors":0.0029618740081787,"duplicate-post":0.016893148422241,"duplicator":0.0018446445465088,"google-analytics-for-wordpress":0.15057516098022,"insert-headers-and-footers":0.0049686431884766,"js_composer":0.53971171379089,"portfolio-post-type":0.049638271331787,"revslider":0.1244215965271,"stag-custom-sidebars":0.0066094398498535,"use-any-font":0.013496160507202,"white-label-cms":0.0062088966369629,"wordpress-seo":0.26085257530212,"wp-fastest-cache":0.018952369689941}},"memory":86245376,"stacksize":32729,"queries":54}
{"url":"\/category\/news-and-media\/","ip":"203.113.192.20","pid":32220,"date":"2015-11-24T05:58:30+00:00","theme_name":"\/websites\/la\/launchhousing.org.au\/wp-content\/themes\/elise\/functions.php","runtime":{"total":5.3290169239044,"wordpress":0.17370176315308,"theme":0.52293086051941,"plugins":0.80423212051392,"profile":3.7460615634918,"breakdown":{"p3-profiler":0.0024034976959229,"contact-form-7-to-database-extension":0.0099842548370361,"contact-form-7":0.045404195785522,"donors":0.00025606155395508,"duplicate-post":0.0014927387237549,"duplicator":0.00049257278442383,"google-analytics-for-wordpress":0.054548740386963,"insert-headers-and-footers":0.0027675628662109,"js_composer":0.46506404876709,"portfolio-post-type":0.0079860687255859,"revslider":0.041107416152954,"stag-custom-sidebars":0.0010578632354736,"use-any-font":0.0031898021697998,"white-label-cms":0.0029528141021729,"wordpress-seo":0.15722560882568,"wp-fastest-cache":0.0082988739013672}},"memory":87031808,"stacksize":32865,"queries":74}
{"url":"\/category\/media-release-archive\/","ip":"203.113.192.20","pid":24850,"date":"2015-11-24T05:58:37+00:00","theme_name":"\/websites\/la\/launchhousing.org.au\/wp-content\/themes\/elise\/functions.php","runtime":{"total":6.5272090435028,"wordpress":0.25413990020752,"theme":0.72314167022705,"plugins":1.4434382915497,"profile":4.0194115638733,"breakdown":{"p3-profiler":0.010871648788452,"contact-form-7-to-database-extension":0.1870973110199,"contact-form-7":0.14764475822449,"donors":0.0010237693786621,"duplicate-post":0.010655164718628,"duplicator":0.002485990524292,"google-analytics-for-wordpress":0.18146204948425,"insert-headers-and-footers":0.0061826705932617,"js_composer":0.44520378112793,"portfolio-post-type":0.031049251556396,"revslider":0.13118958473206,"stag-custom-sidebars":0.0045197010040283,"use-any-font":0.015624523162842,"white-label-cms":0.0089032649993896,"wordpress-seo":0.24429869651794,"wp-fastest-cache":0.015226125717163}},"memory":87031808,"stacksize":32869,"queries":73}
{"url":"\/category\/uncategorized\/","ip":"203.113.192.20","pid":15512,"date":"2015-11-24T05:58:46+00:00","theme_name":"\/websites\/la\/launchhousing.org.au\/wp-content\/themes\/elise\/functions.php","runtime":{"total":5.513072013855,"wordpress":0.19334149360657,"theme":0.55166816711426,"plugins":1.0422422885895,"profile":3.6488502025604,"breakdown":{"p3-profiler":0.0056037902832031,"contact-form-7-to-database-extension":0.055834054946899,"contact-form-7":0.24454617500305,"donors":0.00072884559631348,"duplicate-post":0.005791187286377,"duplicator":0.0015056133270264,"google-analytics-for-wordpress":0.091035127639771,"insert-headers-and-footers":0.027248620986938,"js_composer":0.29792785644531,"portfolio-post-type":0.017750978469849,"revslider":0.072483062744141,"stag-custom-sidebars":0.0033955574035645,"use-any-font":0.0086765289306641,"white-label-cms":0.0067293643951416,"wordpress-seo":0.19398784637451,"wp-fastest-cache":0.0089976787567139}},"memory":86769664,"stacksize":32841,"queries":72}
{"url":"\/launch-housing-budget-submission\/","ip":"203.113.192.20","pid":32220,"date":"2015-11-24T05:58:52+00:00","theme_name":"\/websites\/la\/launchhousing.org.au\/wp-content\/themes\/elise\/functions.php","runtime":{"total":5.2120978832245,"wordpress":0.17415237426758,"theme":0.43993330001831,"plugins":0.79461932182312,"profile":3.7224898338318,"breakdown":{"p3-profiler":0.0046243667602539,"contact-form-7-to-database-extension":0.042534828186035,"contact-form-7":0.076397895812988,"donors":0.00060653686523438,"duplicate-post":0.0041673183441162,"duplicator":0.00095820426940918,"google-analytics-for-wordpress":0.085906028747559,"insert-headers-and-footers":0.0030202865600586,"js_composer":0.29626822471619,"portfolio-post-type":0.012277364730835,"revslider":0.076412200927734,"stag-custom-sidebars":0.0024244785308838,"use-any-font":0.0074601173400879,"white-label-cms":0.0035836696624756,"wordpress-seo":0.16894888877869,"wp-fastest-cache":0.0090289115905762}},"memory":87031808,"stacksize":33100,"queries":81}
{"url":"\/report-finds-schools-need-more-support-for-students-experiencing-homelessness-2\/","ip":"203.113.192.20","pid":32220,"date":"2015-11-24T05:58:58+00:00","theme_name":"\/websites\/la\/launchhousing.org.au\/wp-content\/themes\/elise\/functions.php","runtime":{"total":4.3894619941711,"wordpress":0.16359281539917,"theme":0.34015226364136,"plugins":0.41416430473328,"profile":3.3993232250214,"breakdown":{"p3-profiler":0.002354621887207,"contact-form-7-to-database-extension":0.013123273849487,"contact-form-7":0.042179822921753,"donors":0.00024557113647461,"duplicate-post":0.0016462802886963,"duplicator":0.00046825408935547,"google-analytics-for-wordpress":0.040530681610107,"insert-headers-and-footers":0.003509521484375,"js_composer":0.14845395088196,"portfolio-post-type":0.0038418769836426,"revslider":0.030336380004883,"stag-custom-sidebars":0.00088834762573242,"use-any-font":0.0041208267211914,"white-label-cms":0.0035405158996582,"wordpress-seo":0.11368274688721,"wp-fastest-cache":0.0052416324615479}},"memory":87031808,"stacksize":33100,"queries":81}
{"url":"\/supporter-newsletter-spring-2015\/","ip":"203.113.192.20","pid":32220,"date":"2015-11-24T05:59:04+00:00","theme_name":"\/websites\/la\/launchhousing.org.au\/wp-content\/themes\/elise\/functions.php","runtime":{"total":5.8039588928223,"wordpress":0.18032455444336,"theme":0.93668079376221,"plugins":0.88800525665283,"profile":3.7183256149292,"breakdown":{"p3-profiler":0.0043907165527344,"contact-form-7-to-database-extension":0.03159499168396,"contact-form-7":0.074121952056885,"donors":0.00078511238098145,"duplicate-post":0.0033016204833984,"duplicator":0.00096940994262695,"google-analytics-for-wordpress":0.14566683769226,"insert-headers-and-footers":0.0040724277496338,"js_composer":0.31589770317078,"portfolio-post-type":0.023403644561768,"revslider":0.070298910140991,"stag-custom-sidebars":0.0019328594207764,"use-any-font":0.0072462558746338,"white-label-cms":0.0047440528869629,"wordpress-seo":0.18638229370117,"wp-fastest-cache":0.013196468353271}},"memory":87031808,"stacksize":33100,"queries":80}
{"url":"\/supportive-housing-saves-lives\/","ip":"203.113.192.20","pid":32220,"date":"2015-11-24T05:59:10+00:00","theme_name":"\/websites\/la\/launchhousing.org.au\/wp-content\/themes\/elise\/functions.php","runtime":{"total":4.7840728759766,"wordpress":0.12844157218933,"theme":0.37812352180481,"plugins":0.68915176391602,"profile":3.5139236450195,"breakdown":{"p3-profiler":0.0021519660949707,"contact-form-7-to-database-extension":0.010685205459595,"contact-form-7":0.04179835319519,"donors":0.00023579597473145,"duplicate-post":0.0013887882232666,"duplicator":0.00044488906860352,"google-analytics-for-wordpress":0.048154830932617,"insert-headers-and-footers":0.0023648738861084,"js_composer":0.16316986083984,"portfolio-post-type":0.017652273178101,"revslider":0.27398037910461,"stag-custom-sidebars":0.0009453296661377,"use-any-font":0.0056159496307373,"white-label-cms":0.0032038688659668,"wordpress-seo":0.11129426956177,"wp-fastest-cache":0.0060651302337646}},"memory":87031808,"stacksize":33100,"queries":79}
{"url":"\/wp-admin\/","ip":"203.113.192.20","pid":19427,"date":"2015-11-24T05:59:17+00:00","theme_name":"\/websites\/la\/launchhousing.org.au\/wp-content\/themes\/elise\/functions.php","runtime":{"total":6.8012421131134,"wordpress":0.75788593292236,"theme":0.39934229850769,"plugins":1.5333271026611,"profile":4.0090939998627,"breakdown":{"p3-profiler":0.0050320625305176,"contact-form-7-to-database-extension":0.044584512710571,"contact-form-7":0.087834358215332,"donors":0.001234769821167,"duplicate-post":0.0076582431793213,"duplicator":0.022051572799683,"google-analytics-for-wordpress":0.066658973693848,"insert-headers-and-footers":0.51042580604553,"js_composer":0.49097180366516,"portfolio-post-type":0.019095182418823,"revslider":0.119136095047,"stag-custom-sidebars":0.0037133693695068,"use-any-font":0.010979652404785,"white-label-cms":0.021102428436279,"wordpress-seo":0.10338950157166,"wp-fastest-cache":0.019458770751953}},"memory":86769664,"stacksize":29094,"queries":95}
{"url":"\/wp-admin\/edit.php","ip":"203.113.192.20","pid":32725,"date":"2015-11-24T05:59:25+00:00","theme_name":"\/websites\/la\/launchhousing.org.au\/wp-content\/themes\/elise\/functions.php","runtime":{"total":8.3814508914948,"wordpress":0.83719635009766,"theme":0.40123105049133,"plugins":1.5891206264496,"profile":5.4421408176422,"breakdown":{"p3-profiler":0.0154709815979,"contact-form-7-to-database-extension":0.084541082382202,"contact-form-7":0.11523294448853,"donors":0.001706600189209,"duplicate-post":0.022065401077271,"duplicator":0.043408155441284,"google-analytics-for-wordpress":0.12086534500122,"insert-headers-and-footers":0.0025753974914551,"js_composer":0.38352942466736,"portfolio-post-type":0.03267502784729,"revslider":0.19148349761963,"stag-custom-sidebars":0.005037784576416,"use-any-font":0.014894247055054,"white-label-cms":0.021129369735718,"wordpress-seo":0.51661014556885,"wp-fastest-cache":0.017895221710205}},"memory":105381888,"stacksize":61882,"queries":91}
{"url":"\/wp-admin\/plugins.php","ip":"203.113.192.20","pid":688,"date":"2015-11-24T05:59:34+00:00","theme_name":"\/websites\/la\/launchhousing.org.au\/wp-content\/themes\/elise\/functions.php","runtime":{"total":6.8975660800934,"wordpress":1.0224452018738,"theme":0.40028977394104,"plugins":1.3612718582153,"profile":4.0138597488403,"breakdown":{"p3-profiler":0.005685567855835,"contact-form-7-to-database-extension":0.061275005340576,"contact-form-7":0.10989093780518,"donors":0.0011508464813232,"duplicate-post":0.010979413986206,"duplicator":0.027620077133179,"google-analytics-for-wordpress":0.074131488800049,"insert-headers-and-footers":0.0020961761474609,"js_composer":0.31838703155518,"portfolio-post-type":0.016462564468384,"revslider":0.56917810440063,"stag-custom-sidebars":0.0061697959899902,"use-any-font":0.0095746517181396,"white-label-cms":0.020730018615723,"wordpress-seo":0.1089608669281,"wp-fastest-cache":0.01897931098938}},"memory":86245376,"stacksize":29253,"queries":76}
