{"event":"details","time":1468978494,"u":"12","run":"8.27","mem":"90.81","data":"----- Initiating master send function for BackupBuddy v7.1.2.1 for basename file: `orderby.php`. Post-send deletion: "}
{"event":"details","time":1468978494,"u":"12","run":"8.27","mem":"90.81","data":"Created fileoptions lock file `send-live_2d4d64c709a8d2c3233e47c2ecc3273a-dakf7m.txt.lock` with ID: 578ed53e1d8306.02668778."}
{"event":"details","time":1468978494,"u":"12","run":"8.27","mem":"90.81","data":"Fileoptions load using 0 MB of memory."}
{"event":"details","time":1468978494,"u":"12","run":"8.27","mem":"90.82","data":"Fileoptions `send-live_2d4d64c709a8d2c3233e47c2ecc3273a-dakf7m.txt` saved. 3040 bytes written."}
{"event":"details","time":1468978494,"u":"12","run":"8.27","mem":"90.81","data":"Initializing destination."}
{"event":"details","time":1468978494,"u":"12","run":"8.27","mem":"90.81","data":"Loading destination init file `\/home\/v25845\/public_html\/wp-content\/plugins\/backupbuddy\/destinations\/live\/init.php`."}
{"event":"details","time":1468978494,"u":"12","run":"8.27","mem":"90.81","data":"Destination init loaded."}
{"event":"details","time":1468978494,"u":"12","run":"8.27","mem":"90.81","data":"Initialized `live` destination."}
{"event":"details","time":1468978494,"u":"12","run":"8.27","mem":"90.81","data":"Applying destination-specific defaults."}
{"event":"details","time":1468978494,"u":"12","run":"8.27","mem":"90.82","data":"Applying global destination defaults."}
{"event":"details","time":1468978494,"u":"12","run":"8.27","mem":"90.82","data":"Calling destination-specific send method."}
{"event":"details","time":1468978494,"u":"12","run":"8.27","mem":"90.83","data":"Starting S32 send()."}
{"event":"details","time":1468978494,"u":"12","run":"8.27","mem":"90.83","data":"File size of `1 KB`."}
{"event":"details","time":1468978494,"u":"12","run":"8.28","mem":"90.83","data":"Initiating multipart transfer."}
{"event":"details","time":1468978494,"u":"35","run":"8.50","mem":"90.84","data":"Initiated multipart upload with ID `bXwmPsxgRxzhGTKgI6NMF9XAMVFIftGNdCL9AixgfQR0OdAUcEKNQftAwJ0yokaHDxDMxrW_PFuH.S_Qh2702iGwzgd1yUzGJEwyxGNAl56VUi.5kvlj5pDgf7zpSqNHSTmehiRVppkh0PPUaHZQBA--`."}
{"event":"details","time":1468978494,"u":"35","run":"8.50","mem":"90.85","data":"Multipart initiated; passing over to send first chunk this run. Burst size: `10 MB`."}
{"event":"details","time":1468978494,"u":"35","run":"8.50","mem":"90.84","data":"Using max runtime: `30`."}
{"event":"details","time":1468978494,"u":"35","run":"8.50","mem":"90.84","data":"Beginning upload of part `1` of `1` parts of file `\/home\/v25845\/public_html\/wp-content\/plugins\/woocommerce\/templates\/loop\/orderby.php` to remote location `d5MrW6aRdTy4M6z1\/6e8f10f79c099e86c2546dae42034a5bd6296d3d\/wp-content\/plugins\/woocommerce\/templates\/loop\/orderby.php` with multipart ID `bXwmPsxgRxzhGTKgI6NMF9XAMVFIftGNdCL9AixgfQR0OdAUcEKNQftAwJ0yokaHDxDMxrW_PFuH.S_Qh2702iGwzgd1yUzGJEwyxGNAl56VUi.5kvlj5pDgf7zpSqNHSTmehiRVppkh0PPUaHZQBA--`."}
{"event":"details","time":1468978494,"u":"59","run":"8.74","mem":"90.85","data":"Success sending chunk. Enable full logging for upload result details."}
{"event":"details","time":1468978494,"u":"59","run":"8.74","mem":"90.85","data":"Uploaded size this burst: `1 KB`, Start time: `1468978494.35`. Finish time: `1468978494.59`. Elapsed: `0.241125822067`. Speed: `6 KB`\/sec."}
{"event":"details","time":1468978494,"u":"59","run":"8.74","mem":"90.85","data":"About to load fileoptions data."}
{"event":"details","time":1468978494,"u":"59","run":"8.74","mem":"90.85","data":"Fileoptions instance #10."}
{"event":"details","time":1468978494,"u":"59","run":"8.74","mem":"90.85","data":"Created fileoptions lock file `send-live_2d4d64c709a8d2c3233e47c2ecc3273a-dakf7m.txt.lock` with ID: 578ed53e910e25.17107065."}
{"event":"details","time":1468978494,"u":"59","run":"8.74","mem":"90.87","data":"Fileoptions load using 0.01 MB of memory."}
{"event":"details","time":1468978494,"u":"59","run":"8.74","mem":"90.87","data":"Fileoptions data loaded."}
{"event":"details","time":1468978494,"u":"59","run":"8.74","mem":"90.87","data":"Getting etags and notifying of multipart upload completion."}
{"event":"details","time":1468978494,"u":"84","run":"8.99","mem":"90.87","data":"Server notified of multipart completion."}
{"event":"details","time":1468978494,"u":"84","run":"8.99","mem":"90.87","data":"No more parts left for this multipart upload. Clearing multipart instance variables."}
{"event":"details","time":1468978494,"u":"84","run":"9.00","mem":"90.87","data":"Upload speed average of all chunks: `6 KB`."}
{"event":"details","time":1468978494,"u":"84","run":"9.00","mem":"90.87","data":"Fileoptions `send-live_2d4d64c709a8d2c3233e47c2ecc3273a-dakf7m.txt` saved. 3216 bytes written."}
{"event":"details","time":1468978494,"u":"84","run":"9.00","mem":"90.83","data":"Saving catalog that file `\/wp-content\/plugins\/woocommerce\/templates\/loop\/orderby.php` has been backed up."}
{"event":"details","time":1468978495,"u":"19","run":"9.34","mem":"90.83","data":"Fileoptions `catalog-e1zs5cokji4acs7.txt` saved (Live mode). 2659597 bytes written."}
{"event":"details","time":1468978495,"u":"19","run":"9.35","mem":"90.83","data":"Fileoptions `state-e1zs5cokji4acs7.txt` saved. 2260 bytes written."}
{"event":"details","time":1468978495,"u":"19","run":"9.35","mem":"90.82","data":"Completed send function. Success."}
{"event":"details","time":1468978495,"u":"19","run":"9.35","mem":"90.82","data":"About to load fileoptions data."}
{"event":"details","time":1468978495,"u":"19","run":"9.35","mem":"90.82","data":"Fileoptions instance #16."}
{"event":"details","time":1468978495,"u":"20","run":"9.35","mem":"90.82","data":"Created fileoptions lock file `send-live_2d4d64c709a8d2c3233e47c2ecc3273a-dakf7m.txt.lock` with ID: 578ed53f30ae33.22662692."}
{"event":"details","time":1468978495,"u":"20","run":"9.35","mem":"90.83","data":"Fileoptions load using 0.01 MB of memory."}
{"event":"details","time":1468978495,"u":"20","run":"9.35","mem":"90.83","data":"Fileoptions data loaded."}
{"event":"details","time":1468978495,"u":"20","run":"9.35","mem":"90.83","data":"Post-send deletion not enabled."}
{"event":"details","time":1468978495,"u":"20","run":"9.35","mem":"90.83","data":"Ending send() function pass."}
