{"event":"details","time":1468912907,"u":"84","run":"17.40","mem":"90.78","data":"----- Initiating master send function for BackupBuddy v7.1.2.1 for basename file: `admin-network-de_DE.po`. Post-send deletion: "}
{"event":"details","time":1468912907,"u":"85","run":"17.40","mem":"90.78","data":"Created fileoptions lock file `send-live_375b3d7911a581e175d29b0d65675a44-cmp8i8.txt.lock` with ID: 578dd50bcf8235.38793343."}
{"event":"details","time":1468912907,"u":"85","run":"17.40","mem":"90.78","data":"Fileoptions load using 0 MB of memory."}
{"event":"details","time":1468912907,"u":"85","run":"17.40","mem":"90.79","data":"Fileoptions `send-live_375b3d7911a581e175d29b0d65675a44-cmp8i8.txt` saved. 3024 bytes written."}
{"event":"details","time":1468912907,"u":"85","run":"17.40","mem":"90.78","data":"Initializing destination."}
{"event":"details","time":1468912907,"u":"86","run":"17.41","mem":"90.78","data":"Loading destination init file `\/home\/v25845\/public_html\/wp-content\/plugins\/backupbuddy\/destinations\/live\/init.php`."}
{"event":"details","time":1468912907,"u":"86","run":"17.41","mem":"90.78","data":"Destination init loaded."}
{"event":"details","time":1468912907,"u":"86","run":"17.41","mem":"90.78","data":"Initialized `live` destination."}
{"event":"details","time":1468912907,"u":"86","run":"17.41","mem":"90.78","data":"Applying destination-specific defaults."}
{"event":"details","time":1468912907,"u":"86","run":"17.41","mem":"90.79","data":"Applying global destination defaults."}
{"event":"details","time":1468912907,"u":"86","run":"17.41","mem":"90.79","data":"Calling destination-specific send method."}
{"event":"details","time":1468912907,"u":"86","run":"17.41","mem":"90.80","data":"Starting S32 send()."}
{"event":"details","time":1468912907,"u":"86","run":"17.42","mem":"90.81","data":"File size of `50 KB`."}
{"event":"details","time":1468912907,"u":"86","run":"17.42","mem":"90.81","data":"Initiating multipart transfer."}
{"event":"details","time":1468912908,"u":"10","run":"17.65","mem":"90.81","data":"Initiated multipart upload with ID `sQZzJwvSbmXtDQM5IHoDnexOHTg79Ir4wUBCabjIeCZjYqh8UTenupx0uTY8wwUP_Sbpc1xcRfHkkJI2s9I1C.NRF8GxI42qVg1yB3nNhJzM1fpFAuQm_EM5SAm.bAnsqlwJeWD3xiAkFmmCFRKu_A--`."}
{"event":"details","time":1468912908,"u":"10","run":"17.65","mem":"90.82","data":"Multipart initiated; passing over to send first chunk this run. Burst size: `10 MB`."}
{"event":"details","time":1468912908,"u":"10","run":"17.65","mem":"90.81","data":"Using max runtime: `30`."}
{"event":"details","time":1468912908,"u":"10","run":"17.65","mem":"90.82","data":"Beginning upload of part `1` of `1` parts of file `\/home\/v25845\/public_html\/wp-content\/languages\/admin-network-de_DE.po` to remote location `d5MrW6aRdTy4M6z1\/6e8f10f79c099e86c2546dae42034a5bd6296d3d\/wp-content\/languages\/admin-network-de_DE.po` with multipart ID `sQZzJwvSbmXtDQM5IHoDnexOHTg79Ir4wUBCabjIeCZjYqh8UTenupx0uTY8wwUP_Sbpc1xcRfHkkJI2s9I1C.NRF8GxI42qVg1yB3nNhJzM1fpFAuQm_EM5SAm.bAnsqlwJeWD3xiAkFmmCFRKu_A--`."}
