{"event":"details","time":1474014672,"u":"33","run":"61.46","mem":"43.42","data":"----- Initiating master send function for BackupBuddy v7.1.2.1 for basename file: `alerts.less`. Post-send deletion: "}
{"event":"details","time":1474014672,"u":"36","run":"61.48","mem":"43.43","data":"Created fileoptions lock file `send-live_58e4be085168e1f8ba266b7cada895c8-yguoqy.txt.lock` with ID: 57db2130563ad0.03517524."}
{"event":"details","time":1474014672,"u":"38","run":"61.50","mem":"43.43","data":"Fileoptions load using 0 MB of memory."}
{"event":"details","time":1474014672,"u":"41","run":"61.54","mem":"43.43","data":"Fileoptions `send-live_58e4be085168e1f8ba266b7cada895c8-yguoqy.txt` saved. 3056 bytes written."}
{"event":"details","time":1474014672,"u":"44","run":"61.56","mem":"43.43","data":"Initializing destination."}
{"event":"details","time":1474014672,"u":"46","run":"61.59","mem":"43.43","data":"Loading destination init file `\/srv\/www\/launch_housing\/htdocs\/wp-content\/plugins\/backupbuddy\/destinations\/live\/init.php`."}
{"event":"details","time":1474014672,"u":"48","run":"61.61","mem":"43.43","data":"Destination init loaded."}
{"event":"details","time":1474014672,"u":"50","run":"61.62","mem":"43.43","data":"Initialized `live` destination."}
{"event":"details","time":1474014672,"u":"51","run":"61.64","mem":"43.43","data":"Applying destination-specific defaults."}
{"event":"details","time":1474014672,"u":"53","run":"61.65","mem":"43.43","data":"Applying global destination defaults."}
{"event":"details","time":1474014672,"u":"55","run":"61.67","mem":"43.43","data":"Calling destination-specific send method."}
{"event":"details","time":1474014672,"u":"56","run":"61.69","mem":"43.43","data":"Starting S32 send()."}
{"event":"details","time":1474014672,"u":"58","run":"61.71","mem":"43.49","data":"File size of `1 KB`."}
{"event":"details","time":1474014672,"u":"60","run":"61.73","mem":"43.49","data":"Initiating multipart transfer."}
{"event":"details","time":1474014673,"u":"97","run":"63.10","mem":"43.52","data":"Initiated multipart upload with ID `DcFmZXWE9xbnx0bMSn2OS3aqaJZto3PsRTUPDN3qdW_mh13v_5unJN5rU0X0vCqT5qU2HPsniWl5h_vS9dqIsFzyAlVXFAFqvmW_gIC_FXnPIDubAfvFkLcP4MusRKGQv7oQOfs35zHbPaZJu1yJ5Q--`."}
{"event":"details","time":1474014673,"u":"99","run":"63.11","mem":"43.53","data":"Multipart initiated; passing over to send first chunk this run. Burst size: `10 MB`."}
{"event":"details","time":1474014674,"u":"00","run":"63.13","mem":"43.52","data":"Using max runtime: `30`."}
{"event":"details","time":1474014674,"u":"03","run":"63.16","mem":"43.52","data":"Beginning upload of part `1` of `1` parts of file `\/srv\/www\/launch_housing\/htdocs\/wp-content\/plugins\/js_composer\/assets\/lib\/bower\/bootstrap3\/less\/alerts.less` to remote location `d5MrW6aRdTy4M6z1\/21600590defe29d75bc80f9f6d72fff0a8ef9b20\/wp-content\/plugins\/js_composer\/assets\/lib\/bower\/bootstrap3\/less\/alerts.less` with multipart ID `DcFmZXWE9xbnx0bMSn2OS3aqaJZto3PsRTUPDN3qdW_mh13v_5unJN5rU0X0vCqT5qU2HPsniWl5h_vS9dqIsFzyAlVXFAFqvmW_gIC_FXnPIDubAfvFkLcP4MusRKGQv7oQOfs35zHbPaZJu1yJ5Q--`."}
{"event":"details","time":1474014674,"u":"62","run":"63.74","mem":"43.55","data":"Success sending chunk. Enable full logging for upload result details."}
{"event":"details","time":1474014674,"u":"63","run":"63.76","mem":"43.55","data":"Uploaded size this burst: `1 KB`, Start time: `1473978674.0293`. Finish time: `1473978674.6313`. Elapsed: `0.6019561290741`. Speed: `2 KB`\/sec."}
{"event":"details","time":1474014674,"u":"65","run":"63.78","mem":"43.55","data":"About to load fileoptions data."}
{"event":"details","time":1474014674,"u":"67","run":"63.80","mem":"43.55","data":"Fileoptions instance #10."}
{"event":"details","time":1474014674,"u":"69","run":"63.82","mem":"43.55","data":"Created fileoptions lock file `send-live_58e4be085168e1f8ba266b7cada895c8-yguoqy.txt.lock` with ID: 57db2132a8b262.58669560."}
{"event":"details","time":1474014674,"u":"72","run":"63.85","mem":"43.55","data":"Fileoptions load using 0.01 MB of memory."}
{"event":"details","time":1474014674,"u":"74","run":"63.86","mem":"43.55","data":"Fileoptions data loaded."}
{"event":"details","time":1474014674,"u":"76","run":"63.88","mem":"43.55","data":"Getting etags and notifying of multipart upload completion."}
{"event":"details","time":1474014675,"u":"79","run":"64.92","mem":"43.57","data":"Server notified of multipart completion."}
{"event":"details","time":1474014675,"u":"81","run":"64.94","mem":"43.57","data":"No more parts left for this multipart upload. Clearing multipart instance variables."}
{"event":"details","time":1474014675,"u":"83","run":"64.95","mem":"43.57","data":"Upload speed average of all chunks: `2 KB`."}
{"event":"details","time":1474014675,"u":"86","run":"64.99","mem":"43.58","data":"Fileoptions `send-live_58e4be085168e1f8ba266b7cada895c8-yguoqy.txt` saved. 3176 bytes written."}
{"event":"details","time":1474014675,"u":"89","run":"65.02","mem":"43.54","data":"Saving catalog that file `\/wp-content\/plugins\/js_composer\/assets\/lib\/bower\/bootstrap3\/less\/alerts.less` has been backed up."}
{"event":"details","time":1474014679,"u":"44","run":"68.57","mem":"43.43","data":"Fileoptions `catalog-e1zs5cokji4acs7.txt` saved (Live mode). 5105066 bytes written."}
{"event":"details","time":1474014679,"u":"49","run":"68.61","mem":"43.44","data":"Fileoptions `state-e1zs5cokji4acs7.txt` saved. 2152 bytes written."}
{"event":"details","time":1474014679,"u":"50","run":"68.63","mem":"43.43","data":"Completed send function. Success."}
{"event":"details","time":1474014679,"u":"53","run":"68.65","mem":"43.43","data":"About to load fileoptions data."}
{"event":"details","time":1474014679,"u":"55","run":"68.67","mem":"43.43","data":"Fileoptions instance #16."}
{"event":"details","time":1474014679,"u":"58","run":"68.71","mem":"43.43","data":"Created fileoptions lock file `send-live_58e4be085168e1f8ba266b7cada895c8-yguoqy.txt.lock` with ID: 57db21378c8ae9.04289592."}
{"event":"details","time":1474014679,"u":"62","run":"68.74","mem":"43.44","data":"Fileoptions load using 0.01 MB of memory."}
{"event":"details","time":1474014679,"u":"64","run":"68.76","mem":"43.44","data":"Fileoptions data loaded."}
{"event":"details","time":1474014679,"u":"67","run":"68.79","mem":"43.44","data":"Post-send deletion not enabled."}
{"event":"details","time":1474014679,"u":"69","run":"68.82","mem":"43.44","data":"Ending send() function pass."}
